{
  "name": "sidemenu",
  "app_id": "2dd5b054",
  "type": "ionic-angular",
  "integrations": {
    "cordova": {}
  },
  "proxies": [
    	{
        	"path": "/complaint",
        	"proxyUrl": "http://shared.panahmerah.id/complaint"
    	}
   ]
}
